{
  "project_info": {
    "project_number": "666224798927",
    "project_id": "fontprogrammatic",
    "storage_bucket": "fontprogrammatic.appspot.com"
  },
  "client": [
    {
      "client_info": {
        "mobilesdk_app_id": "1:666224798927:android:96ab73b71bd583f6419bba",
        "android_client_info": {
          "package_name": "com.example.font_recognizer"
        }
      },
      "oauth_client": [
        {
          "client_id": "666224798927-md8ph42bde3936cjcofpno7uj1iq6jtt.apps.googleusercontent.com",
          "client_type": 3
        }
      ],
      "api_key": [
        {
          "current_key": "AIzaSyCNzjzzybTGOwUPKZC9Xi0QNkNO62UPrdo"
        }
      ],
      "services": {
        "appinvite_service": {
          "other_platform_oauth_client": [
            {
              "client_id": "666224798927-md8ph42bde3936cjcofpno7uj1iq6jtt.apps.googleusercontent.com",
              "client_type": 3
            }
          ]
        }
      }
    }
  ],
  "configuration_version": "1"
}